<?xml version="1.0" encoding="UTF-8"?>
<session version="1.0">
<refactoring comment="Delete resource &apos;N3 Dalmolin&apos;" deleteContents="false" description="Delete resource &apos;N3 Dalmolin&apos;" element1="/N3 Dalmolin" flags="7" id="org.eclipse.ltk.core.refactoring.delete.resources" resources="1" stamp="1529718436823"/>
</session>